(module "0697H800002" (layer F.Cu)
  (descr "0697H8000-02-1")
  (tags "Fuse")
  (fp_text reference F** (at 2.058 -0) (layer F.SilkS)
    (effects (font (size 1.27 1.27) (thickness 0.254)))
  )
  (fp_text user %R (at 2.058 -0) (layer F.Fab)
    (effects (font (size 1.27 1.27) (thickness 0.254)))
  )
  (fp_text value "0697H800002" (at 2.058 -0) (layer F.SilkS) hide
    (effects (font (size 1.27 1.27) (thickness 0.254)))
  )
  (fp_line (start -1.635 2) (end 6.715 2) (layer F.Fab) (width 0.2))
  (fp_line (start 6.715 2) (end 6.715 -2) (layer F.Fab) (width 0.2))
  (fp_line (start 6.715 -2) (end -1.635 -2) (layer F.Fab) (width 0.2))
  (fp_line (start -1.635 -2) (end -1.635 2) (layer F.Fab) (width 0.2))
  (fp_line (start -1.635 -2) (end 6.715 -2) (layer F.SilkS) (width 0.1))
  (fp_line (start 6.715 -2) (end 6.715 2) (layer F.SilkS) (width 0.1))
  (fp_line (start 6.715 2) (end -1.635 2) (layer F.SilkS) (width 0.1))
  (fp_line (start -1.635 2) (end -1.635 -2) (layer F.SilkS) (width 0.1))
  (fp_line (start -3.6 -3) (end 7.715 -3) (layer F.CrtYd) (width 0.1))
  (fp_line (start 7.715 -3) (end 7.715 3) (layer F.CrtYd) (width 0.1))
  (fp_line (start 7.715 3) (end -3.6 3) (layer F.CrtYd) (width 0.1))
  (fp_line (start -3.6 3) (end -3.6 -3) (layer F.CrtYd) (width 0.1))
  (fp_line (start -2.6 -0) (end -2.6 -0) (layer F.SilkS) (width 0.2))
  (fp_line (start -2.5 -0) (end -2.5 -0) (layer F.SilkS) (width 0.2))
  (fp_line (start -2.6 -0) (end -2.6 -0) (layer F.SilkS) (width 0.2))
  (fp_arc (start -2.55 -0) (end -2.600 -0) (angle -180) (layer F.SilkS) (width 0.2))
  (fp_arc (start -2.55 -0) (end -2.500 -0) (angle -180) (layer F.SilkS) (width 0.2))
  (fp_arc (start -2.55 -0) (end -2.600 -0) (angle -180) (layer F.SilkS) (width 0.2))
  (pad 1 thru_hole circle (at 0.000 -0) (size 1.400 1.400) (drill 0.9) (layers *.Cu *.Mask))
  (pad 2 thru_hole circle (at 5.080 -0) (size 1.400 1.400) (drill 0.9) (layers *.Cu *.Mask))
  (model 0697H8000-02.stp
    (at (xyz 0 0 0))
    (scale (xyz 1 1 1))
    (rotate (xyz 0 0 0))
  )
)
