(footprint "17867640001"
	(version 20240108)
	(generator "pcbnew")
	(generator_version "8.0")
	(layer "F.Cu")
	(descr "178.6764.0001")
	(tags "Undefined or Miscellaneous")
	(property "Reference" "U**"
		(at 0 0 0)
		(layer "F.SilkS")
		(uuid "1a686cc3-faff-4a9c-a5b1-4708daa18496")
		(effects
			(font
				(size 1.27 1.27)
				(thickness 0.254)
			)
		)
	)
	(property "Value" "17867640001"
		(at 0 0 0)
		(layer "F.SilkS")
		(hide yes)
		(uuid "0a761083-fcf1-4118-bf47-9ad4cb998020")
		(effects
			(font
				(size 1.27 1.27)
				(thickness 0.254)
			)
		)
	)
	(property "Footprint" ""
		(at 0 0 0)
		(unlocked yes)
		(layer "F.Fab")
		(hide yes)
		(uuid "d07d8610-23d1-48fa-bc08-1d555c560aa2")
		(effects
			(font
				(size 1.27 1.27)
			)
		)
	)
	(property "Datasheet" ""
		(at 0 0 0)
		(unlocked yes)
		(layer "F.Fab")
		(hide yes)
		(uuid "222ae597-7957-4dfa-b4fa-9beb0c24aa5e")
		(effects
			(font
				(size 1.27 1.27)
			)
		)
	)
	(property "Description" ""
		(at 0 0 0)
		(unlocked yes)
		(layer "F.Fab")
		(hide yes)
		(uuid "3fdaa8f4-9cfd-42c3-ae11-92c20442e667")
		(effects
			(font
				(size 1.27 1.27)
			)
		)
	)
	(attr through_hole)
	(fp_line
		(start -7.1 -3.725)
		(end 7.1 -3.725)
		(stroke
			(width 0.1)
			(type solid)
		)
		(layer "F.SilkS")
		(uuid "f117535b-4e8c-4100-b5ac-3de7a99ab03d")
	)
	(fp_line
		(start -7.1 3.725)
		(end -7.1 -3.725)
		(stroke
			(width 0.1)
			(type solid)
		)
		(layer "F.SilkS")
		(uuid "62fc68ed-34d9-4b2c-b975-4b945dfb6f54")
	)
	(fp_line
		(start 7.1 -3.725)
		(end 7.1 3.725)
		(stroke
			(width 0.1)
			(type solid)
		)
		(layer "F.SilkS")
		(uuid "b7e491c1-7ccf-48d2-b7ca-f3d0ad9f13be")
	)
	(fp_line
		(start 7.1 3.725)
		(end -7.1 3.725)
		(stroke
			(width 0.1)
			(type solid)
		)
		(layer "F.SilkS")
		(uuid "6f2c250a-3212-4f31-89bb-b5c6da5da2db")
	)
	(fp_line
		(start -7.3 -3.9)
		(end 7.3 -3.9)
		(stroke
			(width 0.1)
			(type solid)
		)
		(layer "F.CrtYd")
		(uuid "a75fd3c8-db40-45eb-a2f5-eb4cb512a2b8")
	)
	(fp_line
		(start -7.3 4)
		(end -7.3 -3.9)
		(stroke
			(width 0.1)
			(type solid)
		)
		(layer "F.CrtYd")
		(uuid "2635f8ff-2746-4432-9d01-ffea5dcab874")
	)
	(fp_line
		(start 7.3 -3.9)
		(end 7.3 4)
		(stroke
			(width 0.1)
			(type solid)
		)
		(layer "F.CrtYd")
		(uuid "ab14ac3b-b654-4c22-87ef-c89aeb0de198")
	)
	(fp_line
		(start 7.3 4)
		(end -7.3 4)
		(stroke
			(width 0.1)
			(type solid)
		)
		(layer "F.CrtYd")
		(uuid "d3465102-323d-49d5-96aa-1293a886ae2d")
	)
	(fp_line
		(start -7.1 -3.725)
		(end 7.1 -3.725)
		(stroke
			(width 0.2)
			(type solid)
		)
		(layer "F.Fab")
		(uuid "2b81e48c-2181-448f-8639-29a120713626")
	)
	(fp_line
		(start -7.1 3.725)
		(end -7.1 -3.725)
		(stroke
			(width 0.2)
			(type solid)
		)
		(layer "F.Fab")
		(uuid "e4637a23-122e-4d7a-88cc-89dfaf5e1788")
	)
	(fp_line
		(start 7.1 -3.725)
		(end 7.1 3.725)
		(stroke
			(width 0.2)
			(type solid)
		)
		(layer "F.Fab")
		(uuid "7135834c-c831-4a2b-bf19-3a5863303409")
	)
	(fp_line
		(start 7.1 3.725)
		(end -7.1 3.725)
		(stroke
			(width 0.2)
			(type solid)
		)
		(layer "F.Fab")
		(uuid "578dc7bd-4592-460f-b0d0-89065ee19350")
	)
	(fp_text user "${REFERENCE}"
		(at 0 0 0)
		(layer "F.Fab")
		(uuid "8eb62c36-92d0-4fac-aaa5-e7708a3cd2fc")
		(effects
			(font
				(size 1.27 1.27)
				(thickness 0.254)
			)
		)
	)
	(pad "" np_thru_hole circle
		(at 0 0)
		(size 2.8 2.8)
		(drill 2.8)
		(layers "*.Cu" "*.Mask")
		(uuid "95ce4d66-7698-4c92-8cd8-be7cf62a9052")
	)
	(pad "1" thru_hole circle
		(at -4 -0.8)
		(size 2.4 2.4)
		(drill 1.6)
		(layers "*.Cu" "*.Mask")
		(remove_unused_layers no)
		(uuid "ea6bde91-3ed8-4620-a096-b092d13c503e")
	)
	(pad "2" thru_hole circle
		(at 4 -0.8)
		(size 2.4 2.4)
		(drill 1.6)
		(layers "*.Cu" "*.Mask")
		(remove_unused_layers no)
		(uuid "1c5fed6d-5b96-4ea7-962e-b61f26b3b271")
	)
	(model "${KIPRJMOD}/footprint.pretty/17867640001.stp"
		(offset
			(xyz 0 0 7.8)
		)
		(scale
			(xyz 1 1 1)
		)
		(rotate
			(xyz 0 0 0)
		)
	)
)